<svg width="59" height="50" viewBox="0 0 59 50" fill="none" xmlns="http://www.w3.org/2000/svg">
<rect x="1" y="1" width="48" height="48" stroke="black" stroke-width="2"/>
<path d="M7.12536 10.8143H12.5314C13.8234 10.8143 14.9624 11.0636 15.9484 11.5623C16.9457 12.0496 17.7164 12.741 18.2604 13.6363C18.8157 14.5316 19.0934 15.5743 19.0934 16.7643C19.0934 17.9543 18.8157 18.997 18.2604 19.8923C17.7164 20.7876 16.9457 21.4846 15.9484 21.9833C14.9624 22.4706 13.8234 22.7143 12.5314 22.7143H7.12536V10.8143ZM12.3954 20.4533C13.5854 20.4533 14.5317 20.1246 15.2344 19.4673C15.9484 18.7986 16.3054 17.8976 16.3054 16.7643C16.3054 15.631 15.9484 14.7356 15.2344 14.0783C14.5317 13.4096 13.5854 13.0753 12.3954 13.0753H9.87936V20.4533H12.3954ZM27.0353 10.6103C28.1346 10.6103 29.0923 10.8256 29.9083 11.2563C30.7243 11.687 31.3589 12.3216 31.8123 13.1603C32.2656 13.999 32.4923 15.0133 32.4923 16.2033V22.7143H29.7383V19.8583H24.2983V22.7143H21.5783V16.2033C21.5783 15.0133 21.8049 13.999 22.2583 13.1603C22.7116 12.3216 23.3463 11.687 24.1623 11.2563C24.9783 10.8256 25.9359 10.6103 27.0353 10.6103ZM29.7383 17.6483V15.9483C29.7383 14.9623 29.4946 14.22 29.0073 13.7213C28.5199 13.2113 27.8569 12.9563 27.0183 12.9563C26.1683 12.9563 25.4996 13.2113 25.0123 13.7213C24.5363 14.22 24.2983 14.9623 24.2983 15.9483V17.6483H29.7383ZM45.3283 21.6943C44.7617 22.0796 44.0477 22.38 43.1863 22.5953C42.3363 22.8106 41.4297 22.9183 40.4663 22.9183C39.265 22.9183 38.245 22.771 37.4063 22.4763C36.5677 22.1703 35.933 21.751 35.5023 21.2183C35.0717 20.6743 34.8563 20.0566 34.8563 19.3653C34.8563 18.7306 35.032 18.1696 35.3833 17.6823C35.7347 17.195 36.2163 16.8323 36.8283 16.5943C36.3637 16.345 36.001 16.005 35.7403 15.5743C35.491 15.1436 35.3663 14.662 35.3663 14.1293C35.3663 13.4833 35.5647 12.894 35.9613 12.3613C36.358 11.8286 36.9587 11.4036 37.7633 11.0863C38.568 10.769 39.554 10.6103 40.7213 10.6103C41.492 10.6103 42.2457 10.6896 42.9823 10.8483C43.719 10.9956 44.3593 11.1996 44.9033 11.4603L44.1383 13.5683C43.0957 13.081 41.9907 12.8373 40.8233 12.8373C39.9393 12.8373 39.2707 12.9733 38.8173 13.2453C38.3753 13.506 38.1543 13.863 38.1543 14.3163C38.1543 14.7356 38.3017 15.0586 38.5963 15.2853C38.9023 15.5006 39.3613 15.6083 39.9733 15.6083H43.2203V17.7843H39.8033C39.112 17.7843 38.5793 17.9033 38.2053 18.1413C37.8313 18.3793 37.6443 18.725 37.6443 19.1783C37.6443 19.6543 37.8823 20.0283 38.3583 20.3003C38.8457 20.561 39.588 20.6913 40.5853 20.6913C41.288 20.6913 41.9907 20.6006 42.6933 20.4193C43.396 20.2266 43.991 19.9603 44.4783 19.6203L45.3283 21.6943ZM20.7084 31.6103C22.1137 31.6103 23.2074 32.024 23.9894 32.8513C24.7714 33.6673 25.1624 34.8516 25.1624 36.4043V43.7143H22.4084V36.4893C22.4084 35.6506 22.1874 35.0216 21.7454 34.6023C21.3147 34.1716 20.7424 33.9563 20.0284 33.9563C19.2464 33.9563 18.623 34.183 18.1584 34.6363C17.6937 35.0783 17.4614 35.7526 17.4614 36.6593V43.7143H14.7074V36.4893C14.7074 35.6506 14.5034 35.0216 14.0954 34.6023C13.6874 34.1716 13.132 33.9563 12.4294 33.9563C11.6587 33.9563 11.041 34.183 10.5764 34.6363C10.1117 35.0783 9.87936 35.7526 9.87936 36.6593V43.7143H7.12536V31.8143H9.79436V33.2763C10.157 32.7436 10.6387 32.3356 11.2394 32.0523C11.84 31.7576 12.5314 31.6103 13.3134 31.6103C14.1294 31.6103 14.8434 31.7633 15.4554 32.0693C16.0674 32.364 16.5377 32.7946 16.8664 33.3613C17.2744 32.7946 17.807 32.364 18.4644 32.0693C19.133 31.7633 19.881 31.6103 20.7084 31.6103ZM34.1503 43.9183C32.915 43.9183 31.7986 43.652 30.8013 43.1193C29.8153 42.5866 29.039 41.8556 28.4723 40.9263C27.917 39.9856 27.6393 38.9316 27.6393 37.7643C27.6393 36.597 27.917 35.5486 28.4723 34.6193C29.039 33.6786 29.8153 32.942 30.8013 32.4093C31.7986 31.8766 32.915 31.6103 34.1503 31.6103C35.3856 31.6103 36.4963 31.8766 37.4823 32.4093C38.4683 32.942 39.2446 33.6786 39.8113 34.6193C40.378 35.5486 40.6613 36.597 40.6613 37.7643C40.6613 38.9316 40.378 39.9856 39.8113 40.9263C39.2446 41.8556 38.4683 42.5866 37.4823 43.1193C36.4963 43.652 35.3856 43.9183 34.1503 43.9183ZM34.1503 41.5723C34.853 41.5723 35.4876 41.4136 36.0543 41.0963C36.621 40.7676 37.063 40.3143 37.3803 39.7363C37.709 39.1583 37.8733 38.501 37.8733 37.7643C37.8733 37.0276 37.709 36.3703 37.3803 35.7923C37.063 35.2143 36.621 34.7666 36.0543 34.4493C35.4876 34.1206 34.853 33.9563 34.1503 33.9563C33.4476 33.9563 32.813 34.1206 32.2463 34.4493C31.6796 34.7666 31.232 35.2143 30.9033 35.7923C30.586 36.3703 30.4273 37.0276 30.4273 37.7643C30.4273 38.501 30.586 39.1583 30.9033 39.7363C31.232 40.3143 31.6796 40.7676 32.2463 41.0963C32.813 41.4136 33.4476 41.5723 34.1503 41.5723Z" fill="black"/>
<path d="M49.5481 31.6103C50.9647 31.6103 52.0697 32.058 52.8631 32.9533C53.6564 33.8373 54.0531 35.101 54.0531 36.7443V43.7143H51.2991V36.8293C51.2991 35.8773 51.0724 35.1633 50.6191 34.6873C50.1771 34.2 49.5594 33.9563 48.7661 33.9563C47.9274 33.9563 47.2531 34.217 46.7431 34.7383C46.2444 35.2483 45.9951 36.0076 45.9951 37.0163V43.7143H43.2411V31.8143H45.9101V33.2593C46.3181 32.7153 46.8281 32.3073 47.4401 32.0353C48.0521 31.752 48.7547 31.6103 49.5481 31.6103Z" fill="#FCFCFC"/>
</svg>
