<svg width="30" height="30" viewBox="0 0 30 30" fill="none" xmlns="http://www.w3.org/2000/svg">
<path d="M29.0622 7.50298C29.0633 6.78052 28.8556 6.07314 28.4642 5.4659C28.0728 4.85865 27.5143 4.3774 26.8559 4.08001C26.1975 3.78262 25.4671 3.68175 24.7528 3.78952C24.0384 3.8973 23.3704 4.20914 22.829 4.68755C22.5359 4.94608 22.2847 5.2485 22.0843 5.58403V5.58755C22.0526 5.64028 22.0228 5.69419 21.9935 5.74809L21.9794 5.7768C21.9548 5.82309 21.9319 5.86997 21.9097 5.91743C21.9026 5.93208 21.8962 5.94673 21.8897 5.96137C21.8704 6.00415 21.8517 6.04751 21.8341 6.09145C21.8265 6.10962 21.8194 6.12778 21.8124 6.14594C21.7966 6.18696 21.7813 6.22798 21.7667 6.26958L21.7456 6.33169C21.7327 6.37153 21.7204 6.41196 21.7087 6.45239C21.7017 6.47524 21.6952 6.49751 21.6894 6.52036C21.6782 6.55962 21.6688 6.59946 21.6595 6.63755C21.6536 6.66157 21.6478 6.68559 21.6425 6.70962C21.6343 6.74946 21.6267 6.78989 21.6196 6.8268C21.6149 6.85141 21.6103 6.87602 21.6062 6.90063C21.5997 6.94165 21.5944 6.98325 21.5892 7.02485C21.5862 7.04887 21.5827 7.0729 21.5798 7.09751C21.5751 7.14262 21.5722 7.18774 21.5687 7.23344C21.5687 7.25454 21.5651 7.27563 21.564 7.29673C21.5604 7.36352 21.5581 7.43032 21.5581 7.49829C21.5581 7.55688 21.5581 7.61548 21.5628 7.67055V7.70805C21.5659 7.76313 21.57 7.81821 21.5751 7.87329L21.5786 7.90141C21.5839 7.95122 21.5897 8.00044 21.5974 8.04907C21.5974 8.05903 21.5974 8.06958 21.6015 8.07954C21.6097 8.13286 21.6196 8.18559 21.6302 8.23833C21.6302 8.25122 21.6355 8.26352 21.6378 8.27641C21.6483 8.3268 21.6601 8.37719 21.673 8.427C21.673 8.4311 21.673 8.43462 21.673 8.43813C21.6864 8.49028 21.7011 8.54126 21.7169 8.59223L21.7292 8.63208C21.745 8.68188 21.7614 8.73051 21.779 8.77915C21.7825 8.78969 21.7866 8.80024 21.7907 8.81079C21.8065 8.85239 21.8229 8.89399 21.8399 8.93501C21.8446 8.94731 21.8493 8.95903 21.8546 8.97075C21.8745 9.01704 21.895 9.06333 21.9167 9.10903L21.936 9.14829C21.9565 9.1893 21.9771 9.23032 21.9987 9.27075C22.3046 9.83918 22.7513 10.3196 23.296 10.6659C23.439 10.7572 23.5882 10.8385 23.7425 10.909L23.7653 10.9196C23.8692 10.9665 23.9753 11.0086 24.0835 11.0461L24.1392 11.0649L24.2271 11.0924C24.2534 11.1006 24.2798 11.1077 24.3067 11.1153L24.4192 11.1446L24.5206 11.168L24.588 11.1815L24.6952 11.2008L24.7503 11.2096C24.803 11.2172 24.8563 11.2243 24.9097 11.2301L24.9548 11.2342C24.9976 11.2377 25.0409 11.2413 25.0843 11.2436L25.1347 11.2465C25.1933 11.2465 25.2483 11.2512 25.3058 11.2512C25.3737 11.2512 25.4405 11.2512 25.5073 11.2454L25.5706 11.2407C25.6163 11.2372 25.6614 11.2342 25.7065 11.2295L25.7798 11.2202C25.8208 11.2149 25.8624 11.2096 25.9034 11.2032L25.9772 11.1897C26.0171 11.1827 26.0575 11.175 26.0944 11.1668L26.1665 11.1499C26.2063 11.1405 26.2462 11.1311 26.2837 11.12C26.3065 11.1141 26.3288 11.1077 26.3517 11.1006C26.3921 11.0889 26.4325 11.0766 26.4724 11.0637L26.5345 11.0426C26.5761 11.028 26.6171 11.0127 26.6581 10.9969L26.7126 10.9752C26.7565 10.9577 26.7999 10.9389 26.8427 10.9196L26.8866 10.8997C26.9341 10.8774 26.981 10.8545 27.0272 10.8299L27.056 10.8159C27.1099 10.7866 27.1638 10.7573 27.2165 10.725H27.22C27.5582 10.5262 27.8635 10.276 28.1247 9.98325C28.7297 9.29879 29.0632 8.4165 29.0622 7.50298Z" fill="#4E72F2"/>
<path d="M21.7605 11.867L15.5754 16.6775C15.4109 16.8054 15.2084 16.8749 15 16.8749C14.7916 16.8749 14.5891 16.8054 14.4246 16.6775L5.98711 10.115C5.88798 10.0402 5.80471 9.94636 5.74215 9.83904C5.67959 9.73172 5.63898 9.61303 5.62269 9.48988C5.60639 9.36673 5.61473 9.24157 5.64723 9.12167C5.67972 9.00177 5.73572 8.88952 5.81197 8.79145C5.88822 8.69338 5.9832 8.61145 6.09139 8.5504C6.19959 8.48936 6.31883 8.45042 6.4422 8.43586C6.56557 8.4213 6.6906 8.43141 6.81003 8.46559C6.92946 8.49976 7.0409 8.55734 7.13789 8.63496L15 14.7498L20.5207 10.4561C19.9865 9.59189 19.6967 8.59903 19.6822 7.58319C19.6676 6.56736 19.9289 5.56661 20.4381 4.6875H5.15625C4.28629 4.68843 3.45224 5.03443 2.83708 5.64958C2.22193 6.26474 1.87593 7.09879 1.875 7.96875V22.0312C1.87593 22.9012 2.22193 23.7353 2.83708 24.3504C3.45224 24.9656 4.28629 25.3116 5.15625 25.3125H24.8438C25.7137 25.3116 26.5478 24.9656 27.1629 24.3504C27.7781 23.7353 28.1241 22.9012 28.125 22.0312V12.3744C27.1381 12.9461 26.0006 13.2037 24.8637 13.1131C23.7268 13.0224 22.6444 12.5878 21.7605 11.867V11.867Z" fill="#4E72F2"/>
</svg>
