<svg width="27" height="27" viewBox="0 0 27 27" fill="none" xmlns="http://www.w3.org/2000/svg">
<rect x="3.53564" width="33.1737" height="5" rx="2.5" transform="rotate(45 3.53564 0)" fill="#A04EF2"/>
<rect y="23.4573" width="33.1737" height="5" rx="2.5" transform="rotate(-45 0 23.4573)" fill="#A04EF2"/>
</svg>
