<svg width="1080" height="1080" viewBox="0 0 1080 1080" fill="none" xmlns="http://www.w3.org/2000/svg">
<rect width="1080" height="1080" fill="#FEFEFE"/>
<g clip-path="url(#clip0)">
<path fill-rule="evenodd" clip-rule="evenodd" d="M184.063 441C237.314 441 284.144 480.806 286.973 534.935C287.074 536.926 287.05 538.918 287.05 540.909L287.1 593.813V638.982H243.735V620.701C234.155 627.243 219.353 633.493 207.759 636.608C195.504 634.776 192.855 629.485 192.293 627.518C190.587 621.595 202.128 609.287 205.848 605.536C213.109 598.26 224.677 590.727 229.951 580.896C236.626 568.409 243.764 554.392 243.764 540.017C243.764 508.352 217.036 482.696 184.067 482.696C174.779 482.675 165.607 484.761 157.238 488.798L141.896 492.398C122.557 496.917 103.04 504.551 84.8989 512.978C97.1542 471.461 136.901 441.051 184.063 441.051V441Z" fill="#0087DD"/>
<path fill-rule="evenodd" clip-rule="evenodd" d="M143.246 498.142C121.049 503.351 98.1988 513.155 83.0134 520.407C81.6703 526.848 80.9956 533.411 81 539.991C81 594.656 127.142 638.959 184.062 638.959C188.895 638.959 193.724 638.634 198.514 637.986C169.135 630.3 199.533 601.832 216.297 588.248C206.602 594.211 195.441 597.349 184.066 597.312C151.096 597.312 124.369 571.652 124.369 539.991C124.392 532.076 126.086 524.255 129.339 517.043C132.593 509.83 137.332 503.389 143.246 498.142Z" fill="#FD3333"/>
<path d="M388.055 639C394.36 638.998 400.645 638.284 406.791 636.87C413.067 635.421 419.123 633.137 424.795 630.079C430.426 627.097 435.576 623.282 440.072 618.761C444.633 614.05 448.223 608.485 450.635 602.383C453.348 595.613 454.702 588.373 454.621 581.078C454.75 574.271 453.625 567.498 451.303 561.099C447.494 550.893 439.478 542.415 427.254 535.666C421.675 532.564 410.867 527.862 394.832 521.558C381.278 516.325 372.42 512.374 368.257 509.708C361.793 505.447 358.605 500.032 358.692 493.463C358.605 490.283 359.262 487.127 360.612 484.248C361.962 481.369 363.967 478.847 366.465 476.885C371.558 472.846 377.956 470.827 385.659 470.827C399.478 470.827 414.315 477.44 430.172 490.667L449.708 464.835C429.426 448.857 408.078 440.912 385.663 441C375.076 440.907 364.621 443.349 355.167 448.125C346.147 452.586 338.468 459.363 332.911 467.765C327.489 475.876 324.62 485.431 324.673 495.194C324.644 499.848 325.247 504.484 326.468 508.975C327.535 512.962 329.074 516.806 331.052 520.427C333.05 523.931 335.558 527.117 338.494 529.88C341.382 532.675 344.468 535.255 347.73 537.6C351.232 540.038 354.919 542.197 358.758 544.058C363.053 546.188 366.973 547.963 370.517 549.383C374.06 550.803 378.224 552.357 383.007 554.044C387.082 555.464 390.359 556.663 392.839 557.639C395.319 558.616 398.043 559.748 401.01 561.035C403.436 562.049 405.788 563.23 408.052 564.568C409.897 565.719 411.652 567.01 413.301 568.429C414.884 569.719 416.233 571.273 417.287 573.023C418.226 574.705 418.962 576.493 419.479 578.35C420.075 580.495 420.365 582.714 420.343 584.941C420.476 588.289 419.796 591.619 418.361 594.646C416.927 597.673 414.779 600.305 412.105 602.316C406.615 606.533 398.643 608.641 388.188 608.641C379.089 608.517 370.146 606.26 362.074 602.05C353.011 597.455 345.021 590.99 338.628 583.081L317.899 608.641C327.25 618.367 338.456 626.109 350.852 631.408C362.62 636.412 375.271 638.994 388.055 639V639ZM565.174 639C589.18 639 608.048 631.677 621.778 617.03C635.508 602.383 642.373 582.454 642.373 557.243V443.13H609.554V554.714C609.554 571.136 605.457 584.096 597.263 593.595C589.069 603.093 578.373 607.843 565.174 607.843C556.796 608.036 548.562 605.642 541.589 600.985C534.812 596.305 529.529 589.762 526.375 582.143C522.784 573.454 521.02 564.117 521.193 554.714V443.132H488.374V557.244C488.202 569.066 490.09 580.827 493.954 591.997C497.262 601.618 502.611 610.405 509.632 617.756C516.481 624.712 524.754 630.095 533.881 633.535C543.886 637.278 554.496 639.131 565.174 639ZM744.685 639C750.99 638.998 757.275 638.284 763.421 636.87C769.697 635.421 775.753 633.137 781.425 630.079C787.056 627.097 792.206 623.282 796.702 618.761C801.263 614.05 804.853 608.485 807.265 602.383C809.977 595.612 811.331 588.373 811.25 581.078C811.378 574.271 810.254 567.498 807.932 561.099C804.123 550.893 796.106 542.415 783.882 535.666C778.302 532.559 767.495 527.854 751.462 521.552C737.908 516.318 729.05 512.368 724.887 509.701C718.42 505.44 715.231 500.025 715.32 493.457C715.232 490.277 715.889 487.12 717.239 484.241C718.589 481.362 720.594 478.84 723.093 476.878C728.186 472.839 734.584 470.82 742.286 470.82C756.105 470.82 770.943 477.433 786.799 490.66L806.338 464.835C786.056 448.857 764.708 440.912 742.293 441C731.707 440.906 721.252 443.349 711.798 448.123C702.779 452.585 695.099 459.361 689.542 467.763C684.121 475.875 681.251 485.43 681.305 495.193C681.275 499.847 681.878 504.483 683.099 508.974C684.166 512.96 685.705 516.805 687.683 520.425C689.681 523.93 692.19 527.116 695.126 529.879C698.013 532.674 701.1 535.254 704.361 537.599C707.863 540.036 711.55 542.195 715.389 544.056C719.685 546.186 723.604 547.962 727.148 549.382C730.692 550.802 734.855 552.355 739.638 554.043C743.713 555.463 746.99 556.661 749.47 557.638C751.95 558.615 754.674 559.747 757.642 561.034C760.067 562.048 762.42 563.228 764.683 564.567C766.528 565.718 768.283 567.009 769.932 568.428C771.515 569.717 772.864 571.272 773.918 573.022C774.857 574.704 775.593 576.492 776.111 578.349C776.706 580.494 776.997 582.713 776.974 584.939C777.108 588.288 776.428 591.619 774.992 594.646C773.557 597.673 771.41 600.305 768.735 602.316C763.243 606.533 755.271 608.641 744.818 608.641C735.719 608.517 726.776 606.26 718.704 602.05C709.641 597.455 701.65 590.991 695.256 583.081L674.528 608.641C683.878 618.367 695.084 626.109 707.48 631.408C719.249 636.412 731.901 638.994 744.685 639V639ZM921.804 639C945.81 639 964.678 631.677 978.408 617.03C992.138 602.383 999.003 582.454 999.003 557.243V443.13H966.184V554.714C966.184 571.136 962.087 584.096 953.893 593.595C945.699 603.093 935.003 607.843 921.804 607.843C913.426 608.036 905.192 605.642 898.219 600.985C891.442 596.305 886.159 589.762 883.005 582.143C879.414 573.454 877.65 564.117 877.823 554.714V443.132H845.004V557.244C844.832 569.066 846.72 580.827 850.584 591.997C853.892 601.618 859.241 610.405 866.263 617.756C873.109 624.713 881.381 630.099 890.506 633.541C900.513 637.283 911.125 639.134 921.804 639V639Z" fill="#0087DD"/>
</g>
<defs>
<clipPath id="clip0">
<rect width="918" height="198" fill="white" transform="translate(81 441)"/>
</clipPath>
</defs>
</svg>
